{
  "Version": "2012-10-17",
  "Statement": [
    {
      "Effect": "Allow",
      "Action": [
        "eks:DescribeAddonConfiguration",
        "eks:ListClusters",
        "eks:DescribeAddonVersions",
        "eks:RegisterCluster",
        "eks:CreateCluster"
      ],
      "Resource": "*"
    },
    {
      "Effect": "Allow",
      "Action": "eks:*",
      "Resource": [
        "arn:aws:eks:*:123456789012:nodegroup/*/*/*",
        "arn:aws:eks:us-west-2:123456789012:cluster/dev",
        "arn:aws:eks:*:123456789012:identityproviderconfig/dev/*/*/*"
      ]
    }
  ]
}
