{
  "Version": "2012-10-17",
  "Statement": [
    {
      "Effect": "Allow",
      "Action": [
        "sts:AssumeRole",
        "sts:AssumeRoleWithWebIdentity"
      ],
      "Principal": {
        "Federated": "arn:aws:iam::123456789012:oidc-provider/oidc.eks.us-west-2.amazonaws.com/id/64902B6F6D509F117054B543241E2D47"
      },
      "Condition": {
        "StringEquals": {
          "oidc.eks.us-west-2.amazonaws.com/id/64902B6F6D509F117054B543241E2D47:sub": "system:serviceaccount:kube-system:autoscaler-dev"
        }
      }
    }
  ]
}
